# Fdb version 3
["pdflatex"] 1457431985 "nomenclature.tex" "nomenclature.pdf" "nomenclature" 1457431985
  "/etc/texmf/web2c/texmf.cnf" 1407188874 1101 af7716885e081ab43982cab7b4672c1a ""
  "/usr/share/texlive/texmf-dist/fonts/map/fontname/texfonts.map" 1272929888 3287 e6b82fe08f5336d4d5ebc73fb1152e87 ""
  "/usr/share/texlive/texmf-dist/fonts/tfm/public/amsfonts/cmextra/cmex7.tfm" 1246382020 1004 54797486969f23fa377b128694d548df ""
  "/usr/share/texlive/texmf-dist/fonts/tfm/public/amsfonts/cmextra/cmex8.tfm" 1246382020 988 bdf658c3bfc2d96d3c8b02cfc1c94c20 ""
  "/usr/share/texlive/texmf-dist/fonts/tfm/public/cm/cmbx12.tfm" 1136768653 1324 c910af8c371558dc20f2d7822f66fe64 ""
  "/usr/share/texlive/texmf-dist/fonts/tfm/public/cm/cmex10.tfm" 1136768653 992 662f679a0b3d2d53c1b94050fdaa3f50 ""
  "/usr/share/texlive/texmf-dist/fonts/tfm/public/cm/cmmi10.tfm" 1136768653 1528 abec98dbc43e172678c11b3b9031252a ""
  "/usr/share/texlive/texmf-dist/fonts/tfm/public/cm/cmmi12.tfm" 1136768653 1524 4414a8315f39513458b80dfc63bff03a ""
  "/usr/share/texlive/texmf-dist/fonts/tfm/public/cm/cmmi6.tfm" 1136768653 1512 f21f83efb36853c0b70002322c1ab3ad ""
  "/usr/share/texlive/texmf-dist/fonts/tfm/public/cm/cmmi8.tfm" 1136768653 1520 eccf95517727cb11801f4f1aee3a21b4 ""
  "/usr/share/texlive/texmf-dist/fonts/tfm/public/cm/cmr10.tfm" 1136768653 1296 45809c5a464d5f32c8f98ba97c1bb47f ""
  "/usr/share/texlive/texmf-dist/fonts/tfm/public/cm/cmr12.tfm" 1136768653 1288 655e228510b4c2a1abe905c368440826 ""
  "/usr/share/texlive/texmf-dist/fonts/tfm/public/cm/cmr17.tfm" 1136768653 1292 296a67155bdbfc32aa9c636f21e91433 ""
  "/usr/share/texlive/texmf-dist/fonts/tfm/public/cm/cmr6.tfm" 1136768653 1300 b62933e007d01cfd073f79b963c01526 ""
  "/usr/share/texlive/texmf-dist/fonts/tfm/public/cm/cmr8.tfm" 1136768653 1292 21c1c5bfeaebccffdb478fd231a0997d ""
  "/usr/share/texlive/texmf-dist/fonts/tfm/public/cm/cmsy10.tfm" 1136768653 1124 6c73e740cf17375f03eec0ee63599741 ""
  "/usr/share/texlive/texmf-dist/fonts/tfm/public/cm/cmsy6.tfm" 1136768653 1116 933a60c408fc0a863a92debe84b2d294 ""
  "/usr/share/texlive/texmf-dist/fonts/tfm/public/cm/cmsy8.tfm" 1136768653 1120 8b7d695260f3cff42e636090a8002094 ""
  "/usr/share/texlive/texmf-dist/fonts/tfm/public/cm/cmtt10.tfm" 1136768653 768 1321e9409b4137d6fb428ac9dc956269 ""
  "/usr/share/texlive/texmf-dist/fonts/type1/public/amsfonts/cm/cmbx12.pfb" 1248133631 32080 340ef9bf63678554ee606688e7b5339d ""
  "/usr/share/texlive/texmf-dist/fonts/type1/public/amsfonts/cm/cmr10.pfb" 1248133631 35752 024fb6c41858982481f6968b5fc26508 ""
  "/usr/share/texlive/texmf-dist/fonts/type1/public/amsfonts/cm/cmr12.pfb" 1248133631 32722 d7379af29a190c3f453aba36302ff5a9 ""
  "/usr/share/texlive/texmf-dist/fonts/type1/public/amsfonts/cm/cmr17.pfb" 1248133631 32362 179c33bbf43f19adbb3825bb4e36e57a ""
  "/usr/share/texlive/texmf-dist/fonts/type1/public/amsfonts/cm/cmr8.pfb" 1248133631 32726 0a1aea6fcd6468ee2cf64d891f5c43c8 ""
  "/usr/share/texlive/texmf-dist/fonts/type1/public/amsfonts/cm/cmtt10.pfb" 1248133631 31099 c85edf1dd5b9e826d67c9c7293b6786c ""
  "/usr/share/texlive/texmf-dist/tex/latex/amsmath/amsbsy.sty" 1362954379 2412 2d98314dc5be38f455f8890deeb2d091 ""
  "/usr/share/texlive/texmf-dist/tex/latex/amsmath/amsgen.sty" 1362954379 4357 ad30ad08920902fc9b38caf35a3b0496 ""
  "/usr/share/texlive/texmf-dist/tex/latex/amsmath/amsmath.sty" 1362954379 79178 b2e326c351e876df0e5e23df2e02441b ""
  "/usr/share/texlive/texmf-dist/tex/latex/amsmath/amsopn.sty" 1362954379 4082 502152465aedb8f6a3c4b0b7c0fa8ae5 ""
  "/usr/share/texlive/texmf-dist/tex/latex/amsmath/amstext.sty" 1362954379 2637 846ebe982d3549c7ede7ce135456f54a ""
  "/usr/share/texlive/texmf-dist/tex/latex/base/article.cls" 1254151887 20571 b8bd218bf2e18b4f5817ee643cd9c515 ""
  "/usr/share/texlive/texmf-dist/tex/latex/base/size11.clo" 1254151887 9058 640f9c40a6d912e30839a669c8a999ec ""
  "/usr/share/texlive/texmf-dist/tex/latex/nomencl/nomencl.sty" 1137110445 6973 f8ea974f22cadd19e9ac5f7bc181f3a8 ""
  "/usr/share/texlive/texmf-dist/web2c/texmf.cnf" 1392645748 31083 1dfd8bf685ce0009c40532fedf8a7c53 ""
  "/usr/share/texmf/web2c/texmf.cnf" 1392645748 31083 1dfd8bf685ce0009c40532fedf8a7c53 ""
  "/var/lib/texmf/fonts/map/pdftex/updmap/pdftex.map" 1407189177 1346346 7f2b8b715a9ddb095afe3697a6ba02b5 ""
  "/var/lib/texmf/web2c/pdftex/pdflatex.fmt" 1407189086 3822873 a24f04af032097018f1da67a97526b7e ""
  "nomenclature.aux" 1457431985 8 a94a2480d3289e625eea47cd1b285758 ""
  "nomenclature.nls" 0 -1 0 ""
  "nomenclature.tex" 1457431647 619 d3b3589de0318dfcadc7f84647b40bc3 ""
  "nomenclature.toc" 1457431985 0 d41d8cd98f00b204e9800998ecf8427e ""
  (generated)
  "nomenclature.log"
  "nomenclature.aux"
  "nomenclature.nlo"
  "nomenclature.pdf"
  "nomenclature.toc"
