\relax 
\bibstyle{IEEEtran}
\bibdata{database}
\bibcite{IEEEhowto:kopka}{1}
\@writefile{toc}{\contentsline {section}{\numberline {I}Introduction}{1}}
\@writefile{toc}{\contentsline {subsection}{\numberline {\unhbox \voidb@x \hbox {I-A}}Subsection Heading Here}{1}}
\@writefile{toc}{\contentsline {subsubsection}{\numberline {\unhbox \voidb@x \hbox {I-A}1}Subsubsection Heading Here}{1}}
\@writefile{toc}{\contentsline {section}{\numberline {II}Conclusion}{1}}
\@writefile{toc}{\contentsline {section}{Appendix\nobreakspace  A: Proof of the First Zonklar Equation}{1}}
\@writefile{toc}{\contentsline {section}{Appendix\nobreakspace  B}{1}}
\@writefile{toc}{\contentsline {section}{References}{1}}
\@writefile{toc}{\contentsline {section}{References}{1}}
\@writefile{toc}{\contentsline {section}{Biographies}{1}}
\@writefile{toc}{\contentsline {subsection}{Michael Shell}{1}}
\@writefile{toc}{\contentsline {subsection}{John Doe}{1}}
\@writefile{toc}{\contentsline {subsection}{Jane Doe}{1}}
