\relax 
\@writefile{toc}{\contentsline {part}{I\hspace  {1em}First part}{3}}
\@writefile{toc}{\contentsline {chapter}{\numberline {1}LaTeX Document}{5}}
\@writefile{lof}{\addvspace {10\p@ }}
\@writefile{lot}{\addvspace {10\p@ }}
\@writefile{toc}{\contentsline {section}{\numberline {1.1}New Line}{5}}
