# Fdb version 3
["pdflatex"] 1457768903 "Creatingdocument.tex" "Creatingdocument.pdf" "Creatingdocument" 1457768904
  "/etc/texmf/web2c/texmf.cnf" 1407188874 1101 af7716885e081ab43982cab7b4672c1a ""
  "/usr/share/texlive/texmf-dist/fonts/map/fontname/texfonts.map" 1272929888 3287 e6b82fe08f5336d4d5ebc73fb1152e87 ""
  "/usr/share/texlive/texmf-dist/fonts/tfm/public/cm/cmbx12.tfm" 1136768653 1324 c910af8c371558dc20f2d7822f66fe64 ""
  "/usr/share/texlive/texmf-dist/fonts/tfm/public/cm/cmmi12.tfm" 1136768653 1524 4414a8315f39513458b80dfc63bff03a ""
  "/usr/share/texlive/texmf-dist/fonts/tfm/public/cm/cmr12.tfm" 1136768653 1288 655e228510b4c2a1abe905c368440826 ""
  "/usr/share/texlive/texmf-dist/fonts/tfm/public/cm/cmr17.tfm" 1136768653 1292 296a67155bdbfc32aa9c636f21e91433 ""
  "/usr/share/texlive/texmf-dist/fonts/tfm/public/cm/cmsl12.tfm" 1136768653 1504 f280e6069e577ca4a981806c471fe65c ""
  "/usr/share/texlive/texmf-dist/fonts/tfm/public/cm/cmsy10.tfm" 1136768653 1124 6c73e740cf17375f03eec0ee63599741 ""
  "/usr/share/texlive/texmf-dist/fonts/type1/public/amsfonts/cm/cmbx12.pfb" 1248133631 32080 340ef9bf63678554ee606688e7b5339d ""
  "/usr/share/texlive/texmf-dist/fonts/type1/public/amsfonts/cm/cmr12.pfb" 1248133631 32722 d7379af29a190c3f453aba36302ff5a9 ""
  "/usr/share/texlive/texmf-dist/fonts/type1/public/amsfonts/cm/cmr17.pfb" 1248133631 32362 179c33bbf43f19adbb3825bb4e36e57a ""
  "/usr/share/texlive/texmf-dist/fonts/type1/public/amsfonts/cm/cmsl12.pfb" 1248133631 34586 5a65dc15601f9c74fe3fb3f37b3b8b6f ""
  "/usr/share/texlive/texmf-dist/tex/latex/base/bk12.clo" 1254151887 8889 d18c42243ba27f217233e617ad271e86 ""
  "/usr/share/texlive/texmf-dist/tex/latex/base/book.cls" 1254151887 23695 94c3d869be52f7302728a4358b7372c2 ""
  "/usr/share/texlive/texmf-dist/web2c/texmf.cnf" 1392645748 31083 1dfd8bf685ce0009c40532fedf8a7c53 ""
  "/usr/share/texmf/web2c/texmf.cnf" 1392645748 31083 1dfd8bf685ce0009c40532fedf8a7c53 ""
  "/var/lib/texmf/fonts/map/pdftex/updmap/pdftex.map" 1407189177 1346346 7f2b8b715a9ddb095afe3697a6ba02b5 ""
  "/var/lib/texmf/web2c/pdftex/pdflatex.fmt" 1407189086 3822873 a24f04af032097018f1da67a97526b7e ""
  "Creatingdocument.aux" 1457768904 301 3ab8a6fba9e2fe058e2469fed69d2659 ""
  "Creatingdocument.tex" 1457768903 1505 51c9f04979132d7de5ea1be4c94e6948 ""
  (generated)
  "Creatingdocument.log"
  "Creatingdocument.pdf"
  "Creatingdocument.aux"
