PWD /media/a/DATA/Sukhjit/research/Latex/workshopdatabitbucket/effieletr/MTech_Thesis/BasicMTechFormat_Improving
INPUT /etc/texmf/web2c/texmf.cnf
INPUT /usr/share/texmf/web2c/texmf.cnf
INPUT /usr/share/texlive/texmf-dist/web2c/texmf.cnf
INPUT /var/lib/texmf/web2c/pdftex/pdflatex.fmt
INPUT header.tex
OUTPUT header.log
INPUT Thesis.cls
INPUT Thesis.cls
INPUT /usr/share/texlive/texmf-dist/tex/latex/base/book.cls
INPUT /usr/share/texlive/texmf-dist/tex/latex/base/book.cls
INPUT /usr/share/texlive/texmf-dist/tex/latex/base/bk12.clo
INPUT /usr/share/texlive/texmf-dist/tex/latex/base/bk12.clo
INPUT /usr/share/texlive/texmf-dist/fonts/map/fontname/texfonts.map
INPUT /usr/share/texlive/texmf-dist/fonts/tfm/public/cm/cmr12.tfm
INPUT /usr/share/texlive/texmf-dist/tex/latex/setspace/setspace.sty
INPUT /usr/share/texlive/texmf-dist/tex/latex/setspace/setspace.sty
INPUT /usr/share/texlive/texmf-dist/tex/latex/vmargin/vmargin.sty
INPUT /usr/share/texlive/texmf-dist/tex/latex/vmargin/vmargin.sty
INPUT /usr/share/texlive/texmf-dist/tex/latex/fancyhdr/fancyhdr.sty
INPUT /usr/share/texlive/texmf-dist/tex/latex/fancyhdr/fancyhdr.sty
INPUT /usr/share/texlive/texmf-dist/tex/latex/amsmath/amsmath.sty
INPUT /usr/share/texlive/texmf-dist/tex/latex/amsmath/amsmath.sty
INPUT /usr/share/texlive/texmf-dist/tex/latex/amsmath/amstext.sty
INPUT /usr/share/texlive/texmf-dist/tex/latex/amsmath/amstext.sty
INPUT /usr/share/texlive/texmf-dist/tex/latex/amsmath/amsgen.sty
INPUT /usr/share/texlive/texmf-dist/tex/latex/amsmath/amsgen.sty
INPUT /usr/share/texlive/texmf-dist/tex/latex/amsmath/amsbsy.sty
INPUT /usr/share/texlive/texmf-dist/tex/latex/amsmath/amsbsy.sty
INPUT /usr/share/texlive/texmf-dist/tex/latex/amsmath/amsopn.sty
INPUT /usr/share/texlive/texmf-dist/tex/latex/amsmath/amsopn.sty
INPUT /usr/share/texlive/texmf-dist/tex/latex/amsfonts/amsfonts.sty
INPUT /usr/share/texlive/texmf-dist/tex/latex/amsfonts/amsfonts.sty
INPUT /usr/share/texlive/texmf-dist/tex/latex/amsfonts/amssymb.sty
INPUT /usr/share/texlive/texmf-dist/tex/latex/amsfonts/amssymb.sty
INPUT /usr/share/texlive/texmf-dist/tex/latex/amsmath/amscd.sty
INPUT /usr/share/texlive/texmf-dist/tex/latex/amsmath/amscd.sty
INPUT /usr/share/texlive/texmf-dist/tex/latex/amscls/amsthm.sty
INPUT /usr/share/texlive/texmf-dist/tex/latex/amscls/amsthm.sty
INPUT /usr/share/texlive/texmf-dist/tex/latex/tools/xspace.sty
INPUT /usr/share/texlive/texmf-dist/tex/latex/tools/xspace.sty
INPUT /usr/share/texlive/texmf-dist/tex/latex/caption/caption.sty
INPUT /usr/share/texlive/texmf-dist/tex/latex/caption/caption.sty
INPUT /usr/share/texlive/texmf-dist/tex/latex/caption/caption3.sty
INPUT /usr/share/texlive/texmf-dist/tex/latex/caption/caption3.sty
INPUT /usr/share/texlive/texmf-dist/tex/latex/graphics/keyval.sty
INPUT /usr/share/texlive/texmf-dist/tex/latex/graphics/keyval.sty
INPUT /usr/share/texlive/texmf-dist/tex/latex/graphics/graphicx.sty
INPUT /usr/share/texlive/texmf-dist/tex/latex/graphics/graphicx.sty
INPUT /usr/share/texlive/texmf-dist/tex/latex/graphics/graphics.sty
INPUT /usr/share/texlive/texmf-dist/tex/latex/graphics/graphics.sty
INPUT /usr/share/texlive/texmf-dist/tex/latex/graphics/trig.sty
INPUT /usr/share/texlive/texmf-dist/tex/latex/graphics/trig.sty
INPUT /usr/share/texlive/texmf-dist/tex/latex/latexconfig/graphics.cfg
INPUT /usr/share/texlive/texmf-dist/tex/latex/latexconfig/graphics.cfg
INPUT /usr/share/texlive/texmf-dist/tex/latex/pdftex-def/pdftex.def
INPUT /usr/share/texlive/texmf-dist/tex/latex/pdftex-def/pdftex.def
INPUT /usr/share/texlive/texmf-dist/tex/generic/oberdiek/infwarerr.sty
INPUT /usr/share/texlive/texmf-dist/tex/generic/oberdiek/infwarerr.sty
INPUT /usr/share/texlive/texmf-dist/tex/generic/oberdiek/ltxcmds.sty
INPUT /usr/share/texlive/texmf-dist/tex/generic/oberdiek/ltxcmds.sty
INPUT /usr/share/texlive/texmf-dist/tex/latex/oberdiek/epstopdf.sty
INPUT /usr/share/texlive/texmf-dist/tex/latex/oberdiek/epstopdf.sty
INPUT /usr/share/texlive/texmf-dist/tex/latex/oberdiek/epstopdf-base.sty
INPUT /usr/share/texlive/texmf-dist/tex/latex/oberdiek/epstopdf-base.sty
INPUT /usr/share/texlive/texmf-dist/tex/latex/oberdiek/grfext.sty
INPUT /usr/share/texlive/texmf-dist/tex/latex/oberdiek/grfext.sty
INPUT /usr/share/texlive/texmf-dist/tex/generic/oberdiek/kvdefinekeys.sty
INPUT /usr/share/texlive/texmf-dist/tex/generic/oberdiek/kvdefinekeys.sty
INPUT /usr/share/texlive/texmf-dist/tex/latex/oberdiek/kvoptions.sty
INPUT /usr/share/texlive/texmf-dist/tex/latex/oberdiek/kvoptions.sty
INPUT /usr/share/texlive/texmf-dist/tex/generic/oberdiek/kvsetkeys.sty
INPUT /usr/share/texlive/texmf-dist/tex/generic/oberdiek/kvsetkeys.sty
INPUT /usr/share/texlive/texmf-dist/tex/generic/oberdiek/etexcmds.sty
INPUT /usr/share/texlive/texmf-dist/tex/generic/oberdiek/etexcmds.sty
INPUT /usr/share/texlive/texmf-dist/tex/generic/oberdiek/ifluatex.sty
INPUT /usr/share/texlive/texmf-dist/tex/generic/oberdiek/ifluatex.sty
INPUT /usr/share/texlive/texmf-dist/tex/generic/oberdiek/pdftexcmds.sty
INPUT /usr/share/texlive/texmf-dist/tex/generic/oberdiek/pdftexcmds.sty
INPUT /usr/share/texlive/texmf-dist/tex/generic/oberdiek/ifpdf.sty
INPUT /usr/share/texlive/texmf-dist/tex/generic/oberdiek/ifpdf.sty
INPUT /usr/share/texlive/texmf-dist/tex/latex/latexconfig/epstopdf-sys.cfg
INPUT /usr/share/texlive/texmf-dist/tex/latex/latexconfig/epstopdf-sys.cfg
INPUT /usr/share/texlive/texmf-dist/tex/latex/subfigure/subfigure.sty
INPUT /usr/share/texlive/texmf-dist/tex/latex/subfigure/subfigure.sty
INPUT /usr/share/texlive/texmf-dist/tex/latex/subfigure/subfigure.cfg
INPUT /usr/share/texlive/texmf-dist/tex/latex/subfigure/subfigure.cfg
INPUT /usr/share/texlive/texmf-dist/tex/latex/booktabs/booktabs.sty
INPUT /usr/share/texlive/texmf-dist/tex/latex/booktabs/booktabs.sty
INPUT /usr/share/texlive/texmf-dist/tex/latex/rotating/rotating.sty
INPUT /usr/share/texlive/texmf-dist/tex/latex/rotating/rotating.sty
INPUT /usr/share/texlive/texmf-dist/tex/latex/base/ifthen.sty
INPUT /usr/share/texlive/texmf-dist/tex/latex/base/ifthen.sty
INPUT /usr/share/texlive/texmf-dist/tex/latex/listings/listings.sty
INPUT /usr/share/texlive/texmf-dist/tex/latex/listings/listings.sty
INPUT lstpatch.sty
INPUT lstpatch.sty
INPUT /usr/share/texlive/texmf-dist/tex/latex/listings/lstmisc.sty
INPUT /usr/share/texlive/texmf-dist/tex/latex/listings/lstmisc.sty
INPUT /usr/share/texlive/texmf-dist/tex/latex/listings/listings.cfg
INPUT /usr/share/texlive/texmf-dist/tex/latex/listings/listings.cfg
INPUT lstpatch.sty
INPUT lstpatch.sty
INPUT /usr/share/texlive/texmf-dist/tex/latex/hyperref/hyperref.sty
INPUT /usr/share/texlive/texmf-dist/tex/latex/hyperref/hyperref.sty
INPUT /usr/share/texlive/texmf-dist/tex/generic/oberdiek/hobsub-hyperref.sty
INPUT /usr/share/texlive/texmf-dist/tex/generic/oberdiek/hobsub-hyperref.sty
INPUT /usr/share/texlive/texmf-dist/tex/generic/oberdiek/hobsub-hyperref.sty
INPUT /usr/share/texlive/texmf-dist/tex/generic/oberdiek/hobsub-generic.sty
INPUT /usr/share/texlive/texmf-dist/tex/generic/oberdiek/hobsub-generic.sty
INPUT /usr/share/texlive/texmf-dist/tex/generic/ifxetex/ifxetex.sty
INPUT /usr/share/texlive/texmf-dist/tex/generic/ifxetex/ifxetex.sty
INPUT /usr/share/texlive/texmf-dist/tex/latex/oberdiek/auxhook.sty
INPUT /usr/share/texlive/texmf-dist/tex/latex/oberdiek/auxhook.sty
INPUT /usr/share/texlive/texmf-dist/tex/latex/hyperref/pd1enc.def
INPUT /usr/share/texlive/texmf-dist/tex/latex/hyperref/pd1enc.def
INPUT /usr/share/texlive/texmf-dist/tex/latex/latexconfig/hyperref.cfg
INPUT /usr/share/texlive/texmf-dist/tex/latex/latexconfig/hyperref.cfg
INPUT /usr/share/texlive/texmf-dist/tex/latex/hyperref/puenc.def
INPUT /usr/share/texlive/texmf-dist/tex/latex/hyperref/puenc.def
INPUT /usr/share/texlive/texmf-dist/tex/latex/url/url.sty
INPUT /usr/share/texlive/texmf-dist/tex/latex/url/url.sty
INPUT /usr/share/texlive/texmf-dist/tex/latex/hyperref/hpdftex.def
INPUT /usr/share/texlive/texmf-dist/tex/latex/hyperref/hpdftex.def
INPUT /usr/share/texlive/texmf-dist/tex/latex/oberdiek/rerunfilecheck.sty
INPUT /usr/share/texlive/texmf-dist/tex/latex/oberdiek/rerunfilecheck.sty
INPUT /usr/share/texlive/texmf-dist/tex/latex/natbib/natbib.sty
INPUT /usr/share/texlive/texmf-dist/tex/latex/natbib/natbib.sty
INPUT /usr/share/texlive/texmf-dist/tex/latex/tools/verbatim.sty
INPUT /usr/share/texlive/texmf-dist/tex/latex/tools/verbatim.sty
INPUT /usr/share/texlive/texmf-dist/tex/latex/graphics/color.sty
INPUT /usr/share/texlive/texmf-dist/tex/latex/graphics/color.sty
INPUT /usr/share/texlive/texmf-dist/tex/latex/latexconfig/color.cfg
INPUT /usr/share/texlive/texmf-dist/tex/latex/latexconfig/color.cfg
INPUT /usr/share/texlive/texmf-dist/tex/latex/base/makeidx.sty
INPUT /usr/share/texlive/texmf-dist/tex/latex/base/makeidx.sty
INPUT /usr/share/texlive/texmf-dist/tex/latex/titlesec/titlesec.sty
INPUT /usr/share/texlive/texmf-dist/tex/latex/titlesec/titlesec.sty
INPUT /usr/share/texlive/texmf-dist/tex/latex/glossaries/base/glossaries.sty
INPUT /usr/share/texlive/texmf-dist/tex/latex/glossaries/base/glossaries.sty
INPUT /usr/share/texlive/texmf-dist/tex/latex/xkeyval/xkeyval.sty
INPUT /usr/share/texlive/texmf-dist/tex/latex/xkeyval/xkeyval.sty
INPUT /usr/share/texlive/texmf-dist/tex/generic/xkeyval/xkeyval.tex
INPUT /usr/share/texlive/texmf-dist/tex/latex/glossaries/base/mfirstuc.sty
INPUT /usr/share/texlive/texmf-dist/tex/latex/glossaries/base/mfirstuc.sty
INPUT /usr/share/texlive/texmf-dist/tex/latex/etoolbox/etoolbox.sty
INPUT /usr/share/texlive/texmf-dist/tex/latex/etoolbox/etoolbox.sty
INPUT /usr/share/texlive/texmf-dist/tex/latex/etex-pkg/etex.sty
INPUT /usr/share/texlive/texmf-dist/tex/latex/etex-pkg/etex.sty
INPUT /usr/share/texlive/texmf-dist/tex/latex/textcase/textcase.sty
INPUT /usr/share/texlive/texmf-dist/tex/latex/textcase/textcase.sty
INPUT /usr/share/texlive/texmf-dist/tex/latex/xfor/xfor.sty
INPUT /usr/share/texlive/texmf-dist/tex/latex/xfor/xfor.sty
INPUT /usr/share/texlive/texmf-dist/tex/latex/datatool/datatool-base.sty
INPUT /usr/share/texlive/texmf-dist/tex/latex/datatool/datatool-base.sty
INPUT /usr/share/texlive/texmf-dist/tex/latex/substr/substr.sty
INPUT /usr/share/texlive/texmf-dist/tex/latex/substr/substr.sty
INPUT /usr/share/texlive/texmf-dist/tex/latex/datatool/datatool-fp.sty
INPUT /usr/share/texlive/texmf-dist/tex/latex/datatool/datatool-fp.sty
INPUT /usr/share/texlive/texmf-dist/tex/latex/fp/fp.sty
INPUT /usr/share/texlive/texmf-dist/tex/latex/fp/fp.sty
INPUT /usr/share/texlive/texmf-dist/tex/latex/fp/defpattern.sty
INPUT /usr/share/texlive/texmf-dist/tex/latex/fp/defpattern.sty
INPUT /usr/share/texlive/texmf-dist/tex/latex/fp/fp-basic.sty
INPUT /usr/share/texlive/texmf-dist/tex/latex/fp/fp-basic.sty
INPUT /usr/share/texlive/texmf-dist/tex/latex/fp/fp-addons.sty
INPUT /usr/share/texlive/texmf-dist/tex/latex/fp/fp-addons.sty
INPUT /usr/share/texlive/texmf-dist/tex/latex/fp/fp-snap.sty
INPUT /usr/share/texlive/texmf-dist/tex/latex/fp/fp-snap.sty
INPUT /usr/share/texlive/texmf-dist/tex/latex/fp/fp-exp.sty
INPUT /usr/share/texlive/texmf-dist/tex/latex/fp/fp-exp.sty
INPUT /usr/share/texlive/texmf-dist/tex/latex/fp/fp-trigo.sty
INPUT /usr/share/texlive/texmf-dist/tex/latex/fp/fp-trigo.sty
INPUT /usr/share/texlive/texmf-dist/tex/latex/fp/fp-pas.sty
INPUT /usr/share/texlive/texmf-dist/tex/latex/fp/fp-pas.sty
INPUT /usr/share/texlive/texmf-dist/tex/latex/fp/fp-random.sty
INPUT /usr/share/texlive/texmf-dist/tex/latex/fp/fp-random.sty
INPUT /usr/share/texlive/texmf-dist/tex/latex/fp/fp-eqn.sty
INPUT /usr/share/texlive/texmf-dist/tex/latex/fp/fp-eqn.sty
INPUT /usr/share/texlive/texmf-dist/tex/latex/fp/fp-upn.sty
INPUT /usr/share/texlive/texmf-dist/tex/latex/fp/fp-upn.sty
INPUT /usr/share/texlive/texmf-dist/tex/latex/fp/fp-eval.sty
INPUT /usr/share/texlive/texmf-dist/tex/latex/fp/fp-eval.sty
INPUT /usr/share/texlive/texmf-dist/tex/latex/supertabular/supertabular.sty
INPUT /usr/share/texlive/texmf-dist/tex/latex/glossaries/base/glossaries-compatible-307.sty
INPUT /usr/share/texlive/texmf-dist/tex/latex/glossaries/base/glossaries-compatible-307.sty
INPUT /usr/share/texlive/texmf-dist/tex/latex/glossaries/styles/glossary-hypernav.sty
INPUT /usr/share/texlive/texmf-dist/tex/latex/glossaries/styles/glossary-hypernav.sty
INPUT /usr/share/texlive/texmf-dist/tex/latex/glossaries/styles/glossary-list.sty
INPUT /usr/share/texlive/texmf-dist/tex/latex/glossaries/styles/glossary-list.sty
INPUT /usr/share/texlive/texmf-dist/tex/latex/glossaries/styles/glossary-long.sty
INPUT /usr/share/texlive/texmf-dist/tex/latex/glossaries/styles/glossary-long.sty
INPUT /usr/share/texlive/texmf-dist/tex/latex/tools/longtable.sty
INPUT /usr/share/texlive/texmf-dist/tex/latex/tools/longtable.sty
INPUT /usr/share/texlive/texmf-dist/tex/latex/glossaries/styles/glossary-super.sty
INPUT /usr/share/texlive/texmf-dist/tex/latex/glossaries/styles/glossary-super.sty
INPUT /usr/share/texlive/texmf-dist/tex/latex/supertabular/supertabular.sty
INPUT /usr/share/texlive/texmf-dist/tex/latex/supertabular/supertabular.sty
INPUT /usr/share/texlive/texmf-dist/tex/latex/glossaries/styles/glossary-tree.sty
INPUT /usr/share/texlive/texmf-dist/tex/latex/glossaries/styles/glossary-tree.sty
OUTPUT header.glo
OUTPUT header.acn
INPUT /usr/share/texlive/texmf-dist/tex/latex/nomencl/nomencl.sty
INPUT /usr/share/texlive/texmf-dist/tex/latex/nomencl/nomencl.sty
OUTPUT header.nlo
INPUT /usr/share/texlive/texmf-dist/tex/latex/imakeidx/imakeidx.sty
INPUT /usr/share/texlive/texmf-dist/tex/latex/imakeidx/imakeidx.sty
INPUT /usr/share/texlive/texmf-dist/tex/latex/xpatch/xpatch.sty
INPUT /usr/share/texlive/texmf-dist/tex/latex/xpatch/xpatch.sty
INPUT /usr/share/texlive/texmf-dist/tex/latex/l3kernel/expl3.sty
INPUT /usr/share/texlive/texmf-dist/tex/latex/l3kernel/expl3.sty
INPUT /usr/share/texlive/texmf-dist/tex/latex/l3kernel/l3names.sty
INPUT /usr/share/texlive/texmf-dist/tex/latex/l3kernel/l3names.sty
INPUT /usr/share/texlive/texmf-dist/tex/latex/l3kernel/l3bootstrap.sty
INPUT /usr/share/texlive/texmf-dist/tex/latex/l3kernel/l3bootstrap.sty
INPUT /usr/share/texlive/texmf-dist/tex/latex/l3kernel/l3basics.sty
INPUT /usr/share/texlive/texmf-dist/tex/latex/l3kernel/l3basics.sty
INPUT /usr/share/texlive/texmf-dist/tex/latex/l3kernel/l3expan.sty
INPUT /usr/share/texlive/texmf-dist/tex/latex/l3kernel/l3expan.sty
INPUT /usr/share/texlive/texmf-dist/tex/latex/l3kernel/l3tl.sty
INPUT /usr/share/texlive/texmf-dist/tex/latex/l3kernel/l3tl.sty
INPUT /usr/share/texlive/texmf-dist/tex/latex/l3kernel/l3seq.sty
INPUT /usr/share/texlive/texmf-dist/tex/latex/l3kernel/l3seq.sty
INPUT /usr/share/texlive/texmf-dist/tex/latex/l3kernel/l3int.sty
INPUT /usr/share/texlive/texmf-dist/tex/latex/l3kernel/l3int.sty
INPUT /usr/share/texlive/texmf-dist/tex/latex/l3kernel/l3quark.sty
INPUT /usr/share/texlive/texmf-dist/tex/latex/l3kernel/l3quark.sty
INPUT /usr/share/texlive/texmf-dist/tex/latex/l3kernel/l3prg.sty
INPUT /usr/share/texlive/texmf-dist/tex/latex/l3kernel/l3prg.sty
INPUT /usr/share/texlive/texmf-dist/tex/latex/l3kernel/l3clist.sty
INPUT /usr/share/texlive/texmf-dist/tex/latex/l3kernel/l3clist.sty
INPUT /usr/share/texlive/texmf-dist/tex/latex/l3kernel/l3token.sty
INPUT /usr/share/texlive/texmf-dist/tex/latex/l3kernel/l3token.sty
INPUT /usr/share/texlive/texmf-dist/tex/latex/l3kernel/l3prop.sty
INPUT /usr/share/texlive/texmf-dist/tex/latex/l3kernel/l3prop.sty
INPUT /usr/share/texlive/texmf-dist/tex/latex/l3kernel/l3msg.sty
INPUT /usr/share/texlive/texmf-dist/tex/latex/l3kernel/l3msg.sty
INPUT /usr/share/texlive/texmf-dist/tex/latex/l3kernel/l3file.sty
INPUT /usr/share/texlive/texmf-dist/tex/latex/l3kernel/l3file.sty
INPUT /usr/share/texlive/texmf-dist/tex/latex/l3kernel/l3skip.sty
INPUT /usr/share/texlive/texmf-dist/tex/latex/l3kernel/l3skip.sty
INPUT /usr/share/texlive/texmf-dist/tex/latex/l3kernel/l3keys.sty
INPUT /usr/share/texlive/texmf-dist/tex/latex/l3kernel/l3keys.sty
INPUT /usr/share/texlive/texmf-dist/tex/latex/l3kernel/l3fp.sty
INPUT /usr/share/texlive/texmf-dist/tex/latex/l3kernel/l3fp.sty
INPUT /usr/share/texlive/texmf-dist/tex/latex/l3kernel/l3box.sty
INPUT /usr/share/texlive/texmf-dist/tex/latex/l3kernel/l3box.sty
INPUT /usr/share/texlive/texmf-dist/tex/latex/l3kernel/l3coffins.sty
INPUT /usr/share/texlive/texmf-dist/tex/latex/l3kernel/l3coffins.sty
INPUT /usr/share/texlive/texmf-dist/tex/latex/l3kernel/l3color.sty
INPUT /usr/share/texlive/texmf-dist/tex/latex/l3kernel/l3color.sty
INPUT /usr/share/texlive/texmf-dist/tex/latex/l3kernel/l3luatex.sty
INPUT /usr/share/texlive/texmf-dist/tex/latex/l3kernel/l3luatex.sty
INPUT /usr/share/texlive/texmf-dist/tex/latex/l3kernel/l3candidates.sty
INPUT /usr/share/texlive/texmf-dist/tex/latex/l3kernel/l3candidates.sty
INPUT /usr/share/texlive/texmf-dist/tex/latex/l3packages/xparse/xparse.sty
INPUT /usr/share/texlive/texmf-dist/tex/latex/l3packages/xparse/xparse.sty
INPUT /usr/share/texlive/texmf-dist/tex/latex/tools/multicol.sty
INPUT /usr/share/texlive/texmf-dist/tex/latex/tools/multicol.sty
OUTPUT header.idx
