\BOOKMARK [0][-]{chapter*.2}{\376\377\000C\000A\000N\000D\000I\000D\000A\000T\000E\000'\000s\000\040\000D\000E\000C\000L\000A\000R\000A\000T\000I\000O\000N}{}% 1
\BOOKMARK [0][-]{chapter*.3}{\376\377\000A\000B\000S\000T\000R\000A\000C\000T}{}% 2
\BOOKMARK [0][-]{chapter*.4}{\376\377\000A\000C\000K\000N\000O\000W\000L\000E\000D\000G\000E\000M\000E\000N\000T\000S}{}% 3
\BOOKMARK [0][-]{chapter*.5}{\376\377\000L\000I\000S\000T\000\040\000O\000F\000\040\000F\000I\000G\000U\000R\000E\000S}{}% 4
\BOOKMARK [0][-]{chapter*.6}{\376\377\000L\000I\000S\000T\000\040\000O\000F\000\040\000T\000A\000B\000L\000E\000S}{}% 5
\BOOKMARK [0][-]{chapter*.6}{\376\377\000A\000B\000B\000R\000E\000V\000I\000A\000T\000I\000O\000N\000S}{}% 6
\BOOKMARK [0][-]{chapter*.6}{\376\377\000N\000O\000M\000E\000N\000C\000L\000A\000T\000U\000R\000E}{}% 7
\BOOKMARK [0][-]{chapter*.7}{\376\377\000T\000A\000B\000L\000E\000\040\000O\000F\000\040\000C\000O\000N\000T\000E\000N\000T\000S}{}% 8
\BOOKMARK [0][-]{chapter.8}{\376\377\0001\000\040\000I\000n\000t\000r\000o\000d\000u\000c\000t\000i\000o\000n}{}% 9
\BOOKMARK [1][-]{section.9}{\376\377\0001\000.\0001\000\040\000U\000s\000e\000\040\000o\000f\000\040\000a\000c\000r\000o\000n\000y\000m\000s\000\040\000a\000n\000d\000\040\000G\000l\000o\000s\000s\000a\000r\000i\000e\000s}{chapter.8}% 10
\BOOKMARK [1][-]{section.11}{\376\377\0001\000.\0002\000\040\000I\000n\000t\000r\000o\000d\000u\000c\000t\000i\000o\000n}{chapter.8}% 11
\BOOKMARK [1][-]{section.12}{\376\377\0001\000.\0003\000\040\000H\000o\000t\000\040\000S\000p\000o\000t\000s}{chapter.8}% 12
\BOOKMARK [1][-]{section.13}{\376\377\0001\000.\0004\000\040\000C\000r\000i\000m\000e\000\040\000H\000o\000t\000\040\000S\000p\000o\000t\000s}{chapter.8}% 13
\BOOKMARK [1][-]{section.14}{\376\377\0001\000.\0005\000\040\000G\000I\000S\000\040\000a\000n\000d\000\040\000C\000r\000i\000m\000e\000\040\000m\000a\000p\000p\000i\000n\000g}{chapter.8}% 14
\BOOKMARK [0][-]{section.14}{\376\377\000R\000e\000f\000e\000r\000e\000n\000c\000e\000s}{}% 15
\BOOKMARK [0][-]{appendix*.15}{\376\377\000A\000p\000p\000e\000n\000d\000i\000x\000\040\000A\000\040}{}% 16
