# Fdb version 3
["pdflatex"] 1457419274 "ParagraphFormatting.tex" "ParagraphFormatting.pdf" "ParagraphFormatting" 1457419275
  "/etc/texmf/web2c/texmf.cnf" 1407188874 1101 af7716885e081ab43982cab7b4672c1a ""
  "/usr/share/texlive/texmf-dist/fonts/map/fontname/texfonts.map" 1272929888 3287 e6b82fe08f5336d4d5ebc73fb1152e87 ""
  "/usr/share/texlive/texmf-dist/fonts/tfm/public/cm/cmbx12.tfm" 1136768653 1324 c910af8c371558dc20f2d7822f66fe64 ""
  "/usr/share/texlive/texmf-dist/fonts/tfm/public/cm/cmmi12.tfm" 1136768653 1524 4414a8315f39513458b80dfc63bff03a ""
  "/usr/share/texlive/texmf-dist/fonts/tfm/public/cm/cmmi6.tfm" 1136768653 1512 f21f83efb36853c0b70002322c1ab3ad ""
  "/usr/share/texlive/texmf-dist/fonts/tfm/public/cm/cmmi8.tfm" 1136768653 1520 eccf95517727cb11801f4f1aee3a21b4 ""
  "/usr/share/texlive/texmf-dist/fonts/tfm/public/cm/cmr12.tfm" 1136768653 1288 655e228510b4c2a1abe905c368440826 ""
  "/usr/share/texlive/texmf-dist/fonts/tfm/public/cm/cmr17.tfm" 1136768653 1292 296a67155bdbfc32aa9c636f21e91433 ""
  "/usr/share/texlive/texmf-dist/fonts/tfm/public/cm/cmr6.tfm" 1136768653 1300 b62933e007d01cfd073f79b963c01526 ""
  "/usr/share/texlive/texmf-dist/fonts/tfm/public/cm/cmr8.tfm" 1136768653 1292 21c1c5bfeaebccffdb478fd231a0997d ""
  "/usr/share/texlive/texmf-dist/fonts/tfm/public/cm/cmsy10.tfm" 1136768653 1124 6c73e740cf17375f03eec0ee63599741 ""
  "/usr/share/texlive/texmf-dist/fonts/tfm/public/cm/cmsy6.tfm" 1136768653 1116 933a60c408fc0a863a92debe84b2d294 ""
  "/usr/share/texlive/texmf-dist/fonts/tfm/public/cm/cmsy8.tfm" 1136768653 1120 8b7d695260f3cff42e636090a8002094 ""
  "/usr/share/texlive/texmf-dist/fonts/type1/public/amsfonts/cm/cmbx12.pfb" 1248133631 32080 340ef9bf63678554ee606688e7b5339d ""
  "/usr/share/texlive/texmf-dist/fonts/type1/public/amsfonts/cm/cmr10.pfb" 1248133631 35752 024fb6c41858982481f6968b5fc26508 ""
  "/usr/share/texlive/texmf-dist/fonts/type1/public/amsfonts/cm/cmr12.pfb" 1248133631 32722 d7379af29a190c3f453aba36302ff5a9 ""
  "/usr/share/texlive/texmf-dist/fonts/type1/public/amsfonts/cm/cmr17.pfb" 1248133631 32362 179c33bbf43f19adbb3825bb4e36e57a ""
  "/usr/share/texlive/texmf-dist/fonts/type1/public/amsfonts/cm/cmr7.pfb" 1248133631 32762 224316ccc9ad3ca0423a14971cfa7fc1 ""
  "/usr/share/texlive/texmf-dist/fonts/type1/public/amsfonts/cm/cmsy10.pfb" 1248133631 32569 5e5ddc8df908dea60932f3c484a54c0d ""
  "/usr/share/texlive/texmf-dist/tex/latex/base/article.cls" 1254151887 20571 b8bd218bf2e18b4f5817ee643cd9c515 ""
  "/usr/share/texlive/texmf-dist/tex/latex/base/omscmr.fd" 1254151887 2109 c400bd6c901edc4a09e4d53fcffd3b3c ""
  "/usr/share/texlive/texmf-dist/tex/latex/base/size10.clo" 1254151887 9042 248dfba326a1b8733d6bb8e0a3ac1e49 ""
  "/usr/share/texlive/texmf-dist/web2c/texmf.cnf" 1392645748 31083 1dfd8bf685ce0009c40532fedf8a7c53 ""
  "/usr/share/texmf/web2c/texmf.cnf" 1392645748 31083 1dfd8bf685ce0009c40532fedf8a7c53 ""
  "/var/lib/texmf/fonts/map/pdftex/updmap/pdftex.map" 1407189177 1346346 7f2b8b715a9ddb095afe3697a6ba02b5 ""
  "/var/lib/texmf/web2c/pdftex/pdflatex.fmt" 1407189086 3822873 a24f04af032097018f1da67a97526b7e ""
  "ParagraphFormatting.aux" 1457419275 8 a94a2480d3289e625eea47cd1b285758 ""
  "ParagraphFormatting.tex" 1457419273 3446 4b89395e91d03c5e3d7900ba671b6fc7 ""
  (generated)
  "ParagraphFormatting.log"
  "ParagraphFormatting.pdf"
  "ParagraphFormatting.aux"
