# Fdb version 3
["pdflatex"] 1457778950 "Creatinglist.tex" "Creatinglist.pdf" "Creatinglist" 1457778951
  "/etc/texmf/web2c/texmf.cnf" 1407188874 1101 af7716885e081ab43982cab7b4672c1a ""
  "/usr/share/texlive/texmf-dist/fonts/map/fontname/texfonts.map" 1272929888 3287 e6b82fe08f5336d4d5ebc73fb1152e87 ""
  "/usr/share/texlive/texmf-dist/fonts/tfm/public/amsfonts/cmextra/cmex7.tfm" 1246382020 1004 54797486969f23fa377b128694d548df ""
  "/usr/share/texlive/texmf-dist/fonts/tfm/public/amsfonts/symbols/msam10.tfm" 1246382020 916 f87d7c45f9c908e672703b83b72241a3 ""
  "/usr/share/texlive/texmf-dist/fonts/tfm/public/amsfonts/symbols/msam7.tfm" 1246382020 928 2dc8d444221b7a635bb58038579b861a ""
  "/usr/share/texlive/texmf-dist/fonts/tfm/public/amsfonts/symbols/msbm10.tfm" 1246382020 908 2921f8a10601f252058503cc6570e581 ""
  "/usr/share/texlive/texmf-dist/fonts/tfm/public/amsfonts/symbols/msbm7.tfm" 1246382020 940 228d6584342e91276bf566bcf9716b83 ""
  "/usr/share/texlive/texmf-dist/fonts/tfm/public/cm/cmbx12.tfm" 1136768653 1324 c910af8c371558dc20f2d7822f66fe64 ""
  "/usr/share/texlive/texmf-dist/fonts/tfm/public/cm/cmex10.tfm" 1136768653 992 662f679a0b3d2d53c1b94050fdaa3f50 ""
  "/usr/share/texlive/texmf-dist/fonts/tfm/public/cm/cmmi12.tfm" 1136768653 1524 4414a8315f39513458b80dfc63bff03a ""
  "/usr/share/texlive/texmf-dist/fonts/tfm/public/cm/cmr12.tfm" 1136768653 1288 655e228510b4c2a1abe905c368440826 ""
  "/usr/share/texlive/texmf-dist/fonts/tfm/public/cm/cmr17.tfm" 1136768653 1292 296a67155bdbfc32aa9c636f21e91433 ""
  "/usr/share/texlive/texmf-dist/fonts/tfm/public/cm/cmsy10.tfm" 1136768653 1124 6c73e740cf17375f03eec0ee63599741 ""
  "/usr/share/texlive/texmf-dist/fonts/type1/public/amsfonts/cm/cmbx12.pfb" 1248133631 32080 340ef9bf63678554ee606688e7b5339d ""
  "/usr/share/texlive/texmf-dist/fonts/type1/public/amsfonts/cm/cmr12.pfb" 1248133631 32722 d7379af29a190c3f453aba36302ff5a9 ""
  "/usr/share/texlive/texmf-dist/fonts/type1/public/amsfonts/cm/cmr17.pfb" 1248133631 32362 179c33bbf43f19adbb3825bb4e36e57a ""
  "/usr/share/texlive/texmf-dist/fonts/type1/public/amsfonts/cm/cmsy10.pfb" 1248133631 32569 5e5ddc8df908dea60932f3c484a54c0d ""
  "/usr/share/texlive/texmf-dist/tex/latex/amsfonts/amsfonts.sty" 1359763108 5949 3f3fd50a8cc94c3d4cbf4fc66cd3df1c ""
  "/usr/share/texlive/texmf-dist/tex/latex/amsfonts/amssymb.sty" 1359763108 13829 94730e64147574077f8ecfea9bb69af4 ""
  "/usr/share/texlive/texmf-dist/tex/latex/amsfonts/umsa.fd" 1359763108 961 6518c6525a34feb5e8250ffa91731cff ""
  "/usr/share/texlive/texmf-dist/tex/latex/amsfonts/umsb.fd" 1359763108 961 d02606146ba5601b5645f987c92e6193 ""
  "/usr/share/texlive/texmf-dist/tex/latex/base/article.cls" 1254151887 20571 b8bd218bf2e18b4f5817ee643cd9c515 ""
  "/usr/share/texlive/texmf-dist/tex/latex/base/omscmr.fd" 1254151887 2109 c400bd6c901edc4a09e4d53fcffd3b3c ""
  "/usr/share/texlive/texmf-dist/tex/latex/base/size12.clo" 1254151887 9053 a28d9b3c915d12545f3d5e7c4986be20 ""
  "/usr/share/texlive/texmf-dist/web2c/texmf.cnf" 1392645748 31083 1dfd8bf685ce0009c40532fedf8a7c53 ""
  "/usr/share/texmf/web2c/texmf.cnf" 1392645748 31083 1dfd8bf685ce0009c40532fedf8a7c53 ""
  "/var/lib/texmf/fonts/map/pdftex/updmap/pdftex.map" 1407189177 1346346 7f2b8b715a9ddb095afe3697a6ba02b5 ""
  "/var/lib/texmf/web2c/pdftex/pdflatex.fmt" 1407189086 3822873 a24f04af032097018f1da67a97526b7e ""
  "Creatinglist.aux" 1457778951 8 a94a2480d3289e625eea47cd1b285758 ""
  "Creatinglist.tex" 1457778950 850 b8a2187ef8bf45984d608929d6ec3762 ""
  (generated)
  "Creatinglist.log"
  "Creatinglist.aux"
  "Creatinglist.pdf"
