# Fdb version 3
["pdflatex"] 1457774008 "headerandfooter.tex" "headerandfooter.pdf" "headerandfooter" 1457774008
  "/etc/texmf/web2c/texmf.cnf" 1407188874 1101 af7716885e081ab43982cab7b4672c1a ""
  "/usr/share/texlive/texmf-dist/fonts/map/fontname/texfonts.map" 1272929888 3287 e6b82fe08f5336d4d5ebc73fb1152e87 ""
  "/usr/share/texlive/texmf-dist/fonts/tfm/public/cm/cmbx12.tfm" 1136768653 1324 c910af8c371558dc20f2d7822f66fe64 ""
  "/usr/share/texlive/texmf-dist/fonts/tfm/public/cm/cmr12.tfm" 1136768653 1288 655e228510b4c2a1abe905c368440826 ""
  "/usr/share/texlive/texmf-dist/fonts/tfm/public/cm/cmr17.tfm" 1136768653 1292 296a67155bdbfc32aa9c636f21e91433 ""
  "/usr/share/texlive/texmf-dist/fonts/tfm/public/cm/cmsy10.tfm" 1136768653 1124 6c73e740cf17375f03eec0ee63599741 ""
  "/usr/share/texlive/texmf-dist/fonts/tfm/public/cm/cmtt12.tfm" 1136768653 772 9a936b7f5e2ff0557fce0f62822f0bbf ""
  "/usr/share/texlive/texmf-dist/fonts/type1/public/amsfonts/cm/cmbx12.pfb" 1248133631 32080 340ef9bf63678554ee606688e7b5339d ""
  "/usr/share/texlive/texmf-dist/fonts/type1/public/amsfonts/cm/cmr12.pfb" 1248133631 32722 d7379af29a190c3f453aba36302ff5a9 ""
  "/usr/share/texlive/texmf-dist/fonts/type1/public/amsfonts/cm/cmsy10.pfb" 1248133631 32569 5e5ddc8df908dea60932f3c484a54c0d ""
  "/usr/share/texlive/texmf-dist/fonts/type1/public/amsfonts/cm/cmtt12.pfb" 1248133631 24252 1e4e051947e12dfb50fee0b7f4e26e3a ""
  "/usr/share/texlive/texmf-dist/tex/latex/base/article.cls" 1254151887 20571 b8bd218bf2e18b4f5817ee643cd9c515 ""
  "/usr/share/texlive/texmf-dist/tex/latex/base/omscmr.fd" 1254151887 2109 c400bd6c901edc4a09e4d53fcffd3b3c ""
  "/usr/share/texlive/texmf-dist/tex/latex/base/size12.clo" 1254151887 9053 a28d9b3c915d12545f3d5e7c4986be20 ""
  "/usr/share/texlive/texmf-dist/web2c/texmf.cnf" 1392645748 31083 1dfd8bf685ce0009c40532fedf8a7c53 ""
  "/usr/share/texmf/web2c/texmf.cnf" 1392645748 31083 1dfd8bf685ce0009c40532fedf8a7c53 ""
  "/var/lib/texmf/fonts/map/pdftex/updmap/pdftex.map" 1407189177 1346346 7f2b8b715a9ddb095afe3697a6ba02b5 ""
  "/var/lib/texmf/web2c/pdftex/pdflatex.fmt" 1407189086 3822873 a24f04af032097018f1da67a97526b7e ""
  "headerandfooter.aux" 1457774008 173 7ef1f261c76e0e2f36a55c2e105a3145 ""
  "headerandfooter.tex" 1457774008 2049 26e2cdbe58925944449dddab6f61a9f3 ""
  (generated)
  "headerandfooter.log"
  "headerandfooter.aux"
  "headerandfooter.pdf"
