\relax 
\@writefile{toc}{\contentsline {section}{\numberline {1}First Document}{1}}
\@writefile{toc}{\contentsline {section}{\numberline {2}The preamble of a document}{1}}
\@writefile{toc}{\contentsline {section}{\numberline {3}Documentclass}{1}}
